{ "id": "execute_scheduled_jobs",

  "name":           "Execute ScheduledJobs",
  "description":    "Run any ScheduledJobs due to run at this particular time",

  "cron":           "* * * * *",
  "steps":          [{"method": "PUT", "url": "/v1/scheduled_jobs/execute"}],
  "enabled":        true,

  "api_user":       "jobs",
  "password":       "youMUSTreplacethis",
  "poison_email":   "someone@example.com",

  "default_step_time":    65,
  "max_seconds_in_queue": 60
}
