{ "id": "purge_async_jobs",

  "name":           "Purge AsyncJobs",
  "description":    "Removes AsyncJobs past their destroy_at time.",

  "cron":           "* * * * *",
  "steps":          [{"method": "PUT", "url": "/v1/async_jobs/cleanup"}],
  "enabled":        true,

  "api_user":       "async_job_purger",
  "password":       "youMUSTreplacethis",
  "poison_email":   "someone@example.com",

  "default_step_time":    65,
  "max_seconds_in_queue": 60
}
